{ "columns":8,
 "editorsettings":
    {
     "export":
        {
         "format":"json",
         "target":"ts1.json"
        }
    },
 "image":"ts1.png",
 "imageheight":112,
 "imagewidth":128,
 "margin":0,
 "name":"TS1",
 "spacing":0,
 "tilecount":56,
 "tiledversion":"1.4.3",
 "tileheight":16,
 "tiles":[
        {
         "id":0,
         "properties":[
                {
                 "name":"collides",
                 "type":"bool",
                 "value":true
                }]
        }, 
        {
         "id":1,
         "properties":[
                {
                 "name":"collides",
                 "type":"bool",
                 "value":true
                }]
        }, 
        {
         "id":2,
         "properties":[
                {
                 "name":"collides",
                 "type":"bool",
                 "value":true
                }]
        }, 
        {
         "id":3,
         "properties":[
                {
                 "name":"collides",
                 "type":"bool",
                 "value":true
                }]
        }, 
        {
         "id":4,
         "properties":[
                {
                 "name":"collides",
                 "type":"bool",
                 "value":true
                }]
        }, 
        {
         "id":5,
         "properties":[
                {
                 "name":"collides",
                 "type":"bool",
                 "value":true
                }]
        }, 
        {
         "id":6,
         "properties":[
                {
                 "name":"collides",
                 "type":"bool",
                 "value":true
                }]
        }, 
        {
         "id":7,
         "properties":[
                {
                 "name":"collides",
                 "type":"bool",
                 "value":true
                }]
        }, 
        {
         "id":8,
         "properties":[
                {
                 "name":"collides",
                 "type":"bool",
                 "value":true
                }]
        }, 
        {
         "id":9,
         "properties":[
                {
                 "name":"collides",
                 "type":"bool",
                 "value":true
                }]
        }, 
        {
         "id":10,
         "properties":[
                {
                 "name":"collides",
                 "type":"bool",
                 "value":true
                }]
        }, 
        {
         "id":11,
         "properties":[
                {
                 "name":"collides",
                 "type":"bool",
                 "value":false
                }]
        }, 
        {
         "id":12,
         "properties":[
                {
                 "name":"collides",
                 "type":"bool",
                 "value":false
                }]
        }, 
        {
         "id":13,
         "properties":[
                {
                 "name":"collides",
                 "type":"bool",
                 "value":false
                }]
        }, 
        {
         "id":14,
         "properties":[
                {
                 "name":"collides",
                 "type":"bool",
                 "value":false
                }]
        }, 
        {
         "id":15,
         "properties":[
                {
                 "name":"collides",
                 "type":"bool",
                 "value":false
                }]
        }, 
        {
         "id":16,
         "properties":[
                {
                 "name":"collides",
                 "type":"bool",
                 "value":true
                }]
        }, 
        {
         "id":17,
         "properties":[
                {
                 "name":"collides",
                 "type":"bool",
                 "value":true
                }]
        }, 
        {
         "id":18,
         "properties":[
                {
                 "name":"collides",
                 "type":"bool",
                 "value":true
                }]
        }, 
        {
         "id":19,
         "properties":[
                {
                 "name":"collides",
                 "type":"bool",
                 "value":true
                }]
        }, 
        {
         "id":20,
         "properties":[
                {
                 "name":"collides",
                 "type":"bool",
                 "value":false
                }]
        }, 
        {
         "id":21,
         "properties":[
                {
                 "name":"collides",
                 "type":"bool",
                 "value":false
                }]
        }, 
        {
         "id":22,
         "properties":[
                {
                 "name":"collides",
                 "type":"bool",
                 "value":false
                }]
        }, 
        {
         "id":23,
         "properties":[
                {
                 "name":"collides",
                 "type":"bool",
                 "value":false
                }]
        }, 
        {
         "id":24,
         "properties":[
                {
                 "name":"collides",
                 "type":"bool",
                 "value":true
                }]
        }, 
        {
         "id":25,
         "properties":[
                {
                 "name":"collides",
                 "type":"bool",
                 "value":false
                }]
        }, 
        {
         "id":26,
         "properties":[
                {
                 "name":"collides",
                 "type":"bool",
                 "value":true
                }]
        }, 
        {
         "id":27,
         "properties":[
                {
                 "name":"collides",
                 "type":"bool",
                 "value":true
                }]
        }, 
        {
         "id":28,
         "properties":[
                {
                 "name":"collides",
                 "type":"bool",
                 "value":true
                }]
        }, 
        {
         "id":29,
         "properties":[
                {
                 "name":"collides",
                 "type":"bool",
                 "value":false
                }]
        }, 
        {
         "id":30,
         "properties":[
                {
                 "name":"collides",
                 "type":"bool",
                 "value":false
                }]
        }, 
        {
         "id":31,
         "properties":[
                {
                 "name":"collides",
                 "type":"bool",
                 "value":false
                }]
        }, 
        {
         "id":32,
         "properties":[
                {
                 "name":"collides",
                 "type":"bool",
                 "value":true
                }]
        }, 
        {
         "id":33,
         "properties":[
                {
                 "name":"collides",
                 "type":"bool",
                 "value":false
                }]
        }, 
        {
         "id":34,
         "properties":[
                {
                 "name":"collides",
                 "type":"bool",
                 "value":false
                }]
        }, 
        {
         "id":35,
         "properties":[
                {
                 "name":"collides",
                 "type":"bool",
                 "value":true
                }]
        }, 
        {
         "id":36,
         "properties":[
                {
                 "name":"collides",
                 "type":"bool",
                 "value":false
                }]
        }, 
        {
         "id":37,
         "properties":[
                {
                 "name":"collides",
                 "type":"bool",
                 "value":false
                }]
        }, 
        {
         "id":38,
         "properties":[
                {
                 "name":"collides",
                 "type":"bool",
                 "value":false
                }]
        }, 
        {
         "id":39,
         "properties":[
                {
                 "name":"collides",
                 "type":"bool",
                 "value":false
                }]
        }, 
        {
         "id":40,
         "properties":[
                {
                 "name":"collides",
                 "type":"bool",
                 "value":true
                }]
        }, 
        {
         "id":41,
         "properties":[
                {
                 "name":"collides",
                 "type":"bool",
                 "value":false
                }]
        }, 
        {
         "id":42,
         "properties":[
                {
                 "name":"collides",
                 "type":"bool",
                 "value":false
                }]
        }, 
        {
         "id":43,
         "properties":[
                {
                 "name":"collides",
                 "type":"bool",
                 "value":false
                }]
        }, 
        {
         "id":44,
         "properties":[
                {
                 "name":"collides",
                 "type":"bool",
                 "value":false
                }]
        }, 
        {
         "id":45,
         "properties":[
                {
                 "name":"collides",
                 "type":"bool",
                 "value":false
                }]
        }, 
        {
         "id":46,
         "properties":[
                {
                 "name":"collides",
                 "type":"bool",
                 "value":false
                }]
        }, 
        {
         "id":47,
         "properties":[
                {
                 "name":"collides",
                 "type":"bool",
                 "value":false
                }]
        }, 
        {
         "id":48,
         "properties":[
                {
                 "name":"collides",
                 "type":"bool",
                 "value":true
                }]
        }, 
        {
         "id":49,
         "properties":[
                {
                 "name":"collides",
                 "type":"bool",
                 "value":false
                }]
        }, 
        {
         "id":50,
         "properties":[
                {
                 "name":"collides",
                 "type":"bool",
                 "value":false
                }]
        }, 
        {
         "id":51,
         "properties":[
                {
                 "name":"collides",
                 "type":"bool",
                 "value":false
                }]
        }, 
        {
         "id":52,
         "properties":[
                {
                 "name":"collides",
                 "type":"bool",
                 "value":false
                }]
        }, 
        {
         "id":53,
         "properties":[
                {
                 "name":"collides",
                 "type":"bool",
                 "value":false
                }]
        }, 
        {
         "id":54,
         "properties":[
                {
                 "name":"collides",
                 "type":"bool",
                 "value":false
                }]
        }, 
        {
         "id":55,
         "properties":[
                {
                 "name":"collides",
                 "type":"bool",
                 "value":false
                }]
        }],
 "tilewidth":16,
 "type":"tileset",
 "version":1.4
}