{ "columns":4,
 "image":"idle_yellow.png",
 "imageheight":20,
 "imagewidth":80,
 "margin":0,
 "name":"player_idle_yellow",
 "spacing":0,
 "tilecount":4,
 "tiledversion":"1.4.3",
 "tileheight":20,
 "tilewidth":20,
 "type":"tileset",
 "version":1.4
}