{ "columns":1,
 "image":"jump_yellow.png",
 "imageheight":20,
 "imagewidth":20,
 "margin":0,
 "name":"player_jump_yellow",
 "spacing":0,
 "tilecount":1,
 "tiledversion":"1.4.3",
 "tileheight":20,
 "tilewidth":20,
 "type":"tileset",
 "version":1.4
}